<svg xmlns="http://www.w3.org/2000/svg" width="30" height="43" viewBox="0 0 30 43">
    <g fill="none" fill-rule="evenodd" transform="translate(0 1.456)">
        <circle cx="15.163" cy="13.837" r="6.163" fill="#FFF"/>
        <path fill="#FADDD1" stroke="#FFF" stroke-width="1.4" d="M14.978 0c-7.8 0-14 6.2-14 14 0 12 14 26 14 26s14-14.2 14-26c0-7.8-6.2-14-14-14zm0 19c-2.8 0-5-2.2-5-5s2.2-5 5-5 5 2.2 5 5-2.2 5-5 5z"/>
    </g>
</svg>
